
Results:
Number of repetitions: 20
Compiler flags: -O2
Environment: linux,x86_64,Version {versionBranch = [6,10], versionTags = []}
CPU time precision: 10.0 (ms)

Eq/Tree,Hand,417.6254999999998,4.197792258658173e-7
,EMGM,425.22599999999994,2.611744678045111e-7
,SYB,6546.60835,NaN
,MultiRec,966.4595499999999,1.9947529471732987e-7
,Regular,819.8505499999998,4.827608282879969e-7
Eq/Logic,Hand,369.6224,NaN
,EMGM,727.6449,NaN
,SYB,2614.162599999999,8.529922399520072e-7
,MultiRec,576.0353499999999,2.821006671476181e-7
,Regular,605.2372000000003,NaN
Map/Tree,Hand,363.222,1.066240299940009e-7
,EMGM,369.0227500000001,NaN
,SYB,2165.534850000001,NaN
Read/Tree,Hand,256.61564999999996,2.1981106894714564e-7
,EMGM,1084.2670999999996,6.572746635480032e-7
,SYB,2159.7342499999995,7.387129490294298e-7
,MultiRec,1170.67265,1.8467823725735746e-7
,Regular,1113.2686999999996,5.840038639982171e-7
Read/Logic,Hand,707.0437499999999,2.384185791015625e-7
,EMGM,2676.7666,3.371747880871523e-7
,SYB,6345.995899999999,1.0002220613194958e-6
Show/Tree,Hand,1938.5206499999997,5.43678009557313e-7
,EMGM,2602.562099999999,8.395584517316346e-7
,SYB,6486.604549999999,1.0446978712180444e-6
,MultiRec,4896.105199999999,9.5367431640625e-7
,Regular,2097.5305500000004,NaN
Show/Logic,Hand,195.61195000000006,NaN
,EMGM,320.0195500000001,NaN
,SYB,566.6349499999999,2.821006671476181e-7
,MultiRec,546.8337999999999,3.371747880871523e-7
,Regular,241.41485000000003,NaN
Update/Tree,Hand,341.42089999999996,2.261837239385876e-7
,EMGM,414.4253999999999,2.821006671476181e-7
,SYB,2254.7402,NaN
,MultiRec,936.4579500000006,NaN
,Regular,429.62635,NaN
Update/Logic,Hand,797.2492999999997,5.001110306597479e-7
,EMGM,1966.1223000000002,NaN
,SYB,1829.1137500000004,NaN
,MultiRec,2106.73105,2.611744678045111e-7
,Regular,1360.0843999999995,7.387129490294298e-7
-------------------------------------
