
Results:
Number of repetitions: 10
Compiler flags: -O1 -funfolding-creation-threshold=90
Environment: linux,x86_64,Version {versionBranch = [6,10], versionTags = []}
CPU time precision: 10.0 (ms)

Eq/Tree,Hand,386.4234,NaN
,EMGM,422.4258999999999,3.286373317740016e-7
,SYB,6078.7791,4.264961199760036e-7
,MultiRec,965.6597999999998,3.9895058943465975e-7
,Regular,788.4487000000001,NaN
Eq/Logic,Hand,1326.4822000000001,NaN
,EMGM,1491.2926000000002,NaN
,SYB,13308.830999999996,1.7059844799040143e-6
,MultiRec,2037.3265,3.015782985847835e-7
,Regular,2009.3249,NaN
Map/Tree,Hand,1910.5186999999999,3.371747880871523e-7
,EMGM,2001.3246,3.015782985847835e-7
,SYB,22396.198899999996,2.089395742436089e-6
Read/Tree,Hand,707.2436,NaN
,EMGM,5913.5689,NaN
,SYB,14290.892499999998,1.3486991523486091e-6
,MultiRec,6151.9836,6.03156597169567e-7
,Regular,6001.5746,0.0
Read/Logic,Hand,700.0431999999998,3.9895058943465975e-7
,EMGM,2508.5558999999994,7.688768146799612e-7
,SYB,6367.597299999999,7.387129490294298e-7
Show/Tree,Hand,1470.4914000000003,NaN
,EMGM,2578.9605,NaN
,SYB,6571.609999999999,1.087356019114626e-6
,MultiRec,4743.0958,0.0
,Regular,1961.7223999999999,3.015782985847835e-7
Show/Logic,Hand,193.61179999999996,1.9947529471732987e-7
,EMGM,280.01699999999994,2.384185791015625e-7
,SYB,536.4329,0.0
,MultiRec,534.0330000000001,NaN
,Regular,238.41440000000003,NaN
Update/Tree,Hand,879.6546000000001,NaN
,EMGM,1146.4711,NaN
,SYB,6399.999199999999,7.387129490294298e-7
,MultiRec,3068.9909999999995,6.03156597169567e-7
,Regular,1196.8743000000002,NaN
Update/Logic,Hand,2878.5791,2.132480599880018e-7
,EMGM,6638.4141,NaN
,SYB,18026.7261,0.0
,MultiRec,22355.796500000004,NaN
,Regular,8013.300099999999,1.206313194339134e-6
-------------------------------------
