
Results:
Number of repetitions: 20
Compiler flags: -O2 -funfolding-creation-threshold=450 -funfolding-use-threshold=60
Environment: linux,x86_64,Version {versionBranch = [6,10], versionTags = []}
CPU time precision: 10.0 (ms)

Eq/Tree,Hand,402.6245999999999,3.371747880871523e-7
,EMGM,423.8257999999999,3.198720899820027e-7
,SYB,5000.511750000001,NaN
,MultiRec,906.6560500000003,NaN
,Regular,774.4477000000002,NaN
Eq/Logic,Hand,370.4226500000001,NaN
,EMGM,372.8226,NaN
,SYB,1910.1185499999997,4.88612688348751e-7
,MultiRec,606.4371500000002,NaN
,Regular,528.4322999999999,3.015782985847835e-7
Map/Tree,Hand,356.82194999999996,1.8467823725735746e-7
,EMGM,1528.0950500000004,NaN
,SYB,2176.335450000001,NaN
Read/Tree,Hand,249.41499999999996,1.5078914929239175e-7
,EMGM,1067.46605,1.8467823725735746e-7
,SYB,2781.9732000000004,NaN
,MultiRec,1095.2677999999996,6.03156597169567e-7
,Regular,1094.8678999999997,5.001110306597479e-7
Read/Logic,Hand,698.6430499999998,4.6476337169689957e-7
,EMGM,2439.551700000001,NaN
,SYB,8228.713500000002,NaN
Show/Tree,Hand,1677.9041999999997,5.642013342952362e-7
,EMGM,1588.8987499999998,3.198720899820027e-7
,SYB,6159.784600000001,NaN
,MultiRec,4034.4515999999994,7.835234034135334e-7
,Regular,1423.6884999999997,4.523674478771752e-7
Show/Logic,Hand,196.01200000000006,NaN
,EMGM,216.61305,1.3591950238932825e-7
,SYB,470.0290500000002,NaN
,MultiRec,502.23090000000013,NaN
,Regular,204.41210000000007,NaN
Update/Tree,Hand,352.0216999999999,3.198720899820027e-7
,EMGM,422.8259999999999,3.198720899820027e-7
,SYB,2095.5304500000007,NaN
,MultiRec,908.2561500000002,NaN
,Regular,343.22099999999995,2.611744678045111e-7
Update/Logic,Hand,778.2482000000002,NaN
,EMGM,735.2454500000001,NaN
,SYB,3262.4033500000005,NaN
,MultiRec,2113.53155,NaN
,Regular,792.6490499999996,5.741879739185475e-7
-------------------------------------
