
Results:
Number of repetitions: 10
Compiler flags: -O2
Environment: linux,i386,Version {versionBranch = [6,13], versionTags = []}
CPU time precision: 10.0 (ms)

Eq/Tree,Hand,290.41769999999997,5.399983560674556
,EMGM,2178.1357,33.107964869331504
,SYB,2037.3269,29.997545153080647
,MultiRec,900.4558000000001,10.575073436046594
,Regular,592.4368000000001,12.852261407584646
Eq/Logic,Hand,884.4548000000001,12.286440627329348
,EMGM,1626.9011000000003,25.091464726077742
,SYB,4340.6709,37.73600823101334
,MultiRec,1756.9094,19.02632566384451
,Regular,1252.8776,17.969054925992417
Map/Tree,Hand,686.4424000000001,23.643192161804205
,EMGM,2219.3383,31.486711193595365
,SYB,8423.726200000001,62.195172507911366
Read/Tree,Hand,374.82300000000004,11.322151366041515
,EMGM,2569.7601,40.01106075255239
,SYB,5433.1392,26.11573561327014
,MultiRec,2542.1587,21.930769921378573
,Regular,2352.9464000000003,18.648734280552894
Read/Logic,Hand,373.2229,17.081355699839644
,EMGM,1260.8784,18.263410939787633
,SYB,2535.758,22.02745764822717
Show/Tree,Hand,617.2382,12.228360513349447
,EMGM,1684.9046000000003,34.60713869902177
,SYB,3277.8041000000003,35.689806896678746
,MultiRec,2890.1802,24.82101266087079
,Regular,913.6567000000002,22.722797206770124
Show/Logic,Hand,84.00460000000001,4.619090848496774
,EMGM,142.00820000000002,8.895042337042451
,SYB,289.21760000000006,14.117796524639065
,MultiRec,337.2206,11.478257738485889
,Regular,114.0067,6.59989900680306
Update/Tree,Hand,380.8234,14.086280198200738
,EMGM,1894.5176,36.184593483967724
,SYB,3477.0168000000003,40.8298410392311
,MultiRec,1828.9138000000003,31.71173500912382
,Regular,1146.8709999999999,24.3728264535186
Update/Logic,Hand,1053.6654,19.063925270287594
,EMGM,5285.9298,55.69131440319532
,SYB,5394.3367,44.11373692589052
,MultiRec,8748.5463,39.28502126213864
,Regular,3858.2407,56.2013879821684
-------------------------------------
