
Results:
Number of repetitions: 10
Compiler flags: -O1 -funfolding-creation-threshold=1000 -funfolding-use-threshold=180
Environment: linux,i386,Version {versionBranch = [6,8], versionTags = []}
CPU time precision: 10.0 (ms)

Eq/Tree,Hand,259.21569999999997,10.119833134878165
,EMGM,281.21709999999996,11.164137061243117
,SYB,2080.5294,32.68635603632398
,MultiRec,577.6358,8.88508366495968
,Regular,256.8155,6.1973471430210525
Eq/Logic,Hand,614.838,12.796562064346276
,EMGM,647.2398000000001,11.746303473386385
,SYB,4236.6641,34.1234608784369
,MultiRec,1166.4725000000003,14.991375337173107
,Regular,615.2376999999999,11.282923213127571
Map/Tree,Hand,673.2415000000001,18.28771297438074
,EMGM,694.4427000000002,11.501296565073758
,SYB,5139.520599999999,30.569980987890744
Read/Tree,Hand,349.22130000000004,11.003801394164757
,EMGM,2460.9532000000004,32.432488580297296
,SYB,6871.6288,45.64104984136774
,MultiRec,2530.1576999999997,31.057402113040734
,Regular,2476.5543000000002,31.74814366244292
Read/Logic,Hand,380.02330000000006,12.365579494440732
,EMGM,1120.8695,24.134511998150845
,SYB,2995.3869,44.457268478218964
Show/Tree,Hand,562.4345999999999,21.51721588867855
,EMGM,713.6442,12.250032224900908
,SYB,2306.9436,25.443528813607745
,MultiRec,1986.9236,25.303083734772077
,Regular,627.6385000000001,14.782587408840163
Show/Logic,Hand,86.405,6.0227716395545166
,EMGM,95.2057,9.942563966771015
,SYB,248.81510000000003,13.959649832045695
,MultiRec,236.0139,14.111713065944741
,Regular,96.00529999999999,4.619187062917265
Update/Tree,Hand,354.4213000000001,19.06347761821018
,EMGM,466.42870000000005,11.027795206759235
,SYB,1694.1053999999997,28.23896447660765
,MultiRec,1692.1048999999998,24.803189823757172
,Regular,440.42690000000005,6.915817641866767
Update/Logic,Hand,1086.8672000000001,31.103348943660517
,EMGM,1068.0661000000002,20.222297970584595
,SYB,10128.6326,81.04282011957196
,MultiRec,8673.7414,718.6858111722164
,Regular,1352.084,14.848299603358981
-------------------------------------
