
Results:
Number of repetitions: 10
Compiler flags: -O1 -funfolding-creation-threshold=450 -funfolding-use-threshold=60
Environment: linux,i386,Version {versionBranch = [6,10], versionTags = []}
CPU time precision: 10.0 (ms)

Eq/Tree,Hand,278.81679999999994,10.675554649134929
,EMGM,282.0169,6.32508237012679
,SYB,2254.5404,28.734951281593492
,MultiRec,604.4371000000001,11.384820326987073
,Regular,254.01530000000002,8.48583135519962
Eq/Logic,Hand,924.4572000000001,7.168313017098999
,EMGM,945.6587,6.851063194862525
,SYB,4374.672700000001,27.01273449504891
,MultiRec,1169.6727,14.010288307367464
,Regular,920.057,13.200101034966847
Map/Tree,Hand,736.0456000000001,8.844734795345797
,EMGM,745.6460000000001,15.911756687710158
,SYB,9010.962499999998,73.69370259127354
Read/Tree,Hand,361.6221,8.884823532918999
,EMGM,2360.947,33.616927022624274
,SYB,7146.446200000001,37.44250710326124
,MultiRec,2550.9587999999994,38.37147560015548
,Regular,2511.3562999999995,29.079532382187022
Read/Logic,Hand,351.6214,13.6570828607967
,EMGM,1109.6688,25.03121256351754
,SYB,3142.196,17.71477729028636
Show/Tree,Hand,636.0391999999999,8.641501950214174
,EMGM,696.043,16.2217686801135
,SYB,3004.9873,33.77547310648163
,MultiRec,1892.5176,42.43747199822344
,Regular,633.6389,21.763525074205138
Show/Logic,Hand,88.8048,6.47754412995817
,EMGM,105.20609999999999,9.438206073072248
,SYB,257.21559999999994,9.24785623446502
,MultiRec,248.4151,15.827961239176982
,Regular,98.4059,8.682733855826237
Update/Tree,Hand,370.8225,13.071614745529931
,EMGM,498.4306,16.78195860109569
,SYB,3330.6076000000003,37.01032175308203
,MultiRec,1504.8935000000001,33.61674191778059
,Regular,414.42549999999994,13.624324678472863
Update/Logic,Hand,1137.6707,22.722992814670295
,EMGM,1085.2674,19.69218235860219
,SYB,10710.269,51.13087357186708
,MultiRec,7445.6648000000005,57.66310289142152
,Regular,896.8557000000001,19.849849767413595
-------------------------------------
