
Results:
Number of repetitions: 20
Compiler flags: -O2 -funfolding-use-threshold=60
Environment: linux,x86_64,Version {versionBranch = [6,10], versionTags = []}
CPU time precision: 10.0 (ms)

Eq/Tree,Hand,444.6271,7.539457464619587e-8
,EMGM,3893.2425500000004,NaN
,SYB,4671.491499999999,8.259061849445711e-7
,MultiRec,906.6560000000003,NaN
,Regular,773.6477000000002,NaN
Eq/Logic,Hand,369.4226,1.5078914929239175e-7
,EMGM,729.2448999999999,3.1085979486478084e-7
,SYB,1902.5181999999998,4.264961199760036e-7
,MultiRec,605.8371500000002,NaN
,Regular,528.0324499999999,3.198720899820027e-7
Map/Tree,Hand,360.22204999999997,1.5993604499100135e-7
,EMGM,1539.0955500000005,NaN
,SYB,2180.1357000000003,NaN
Read/Tree,Hand,251.41499999999996,1.5078914929239175e-7
,EMGM,1145.8709999999999,2.132480599880018e-7
,SYB,2781.77325,NaN
,MultiRec,1104.8683999999998,3.693564745147149e-7
,Regular,1091.8676499999997,5.540347117720724e-7
Read/Logic,Hand,689.0424499999998,4.6476337169689957e-7
,EMGM,2792.1739499999994,7.231593555499601e-7
,SYB,8254.91525,NaN
Show/Tree,Hand,1704.50595,1.066240299940009e-7
,EMGM,3896.64285,NaN
,SYB,6268.991149999999,1.1080694235441447e-6
,MultiRec,4655.2904,2.132480599880018e-7
,Regular,1429.8888499999998,3.536319011257011e-7
Show/Logic,Hand,198.21200000000005,NaN
,EMGM,316.2190500000001,NaN
,SYB,474.6291000000003,NaN
,MultiRec,546.8338499999999,3.536319011257011e-7
,Regular,205.41210000000007,NaN
Update/Tree,Hand,351.42144999999994,2.611744678045111e-7
,EMGM,1722.3071,NaN
,SYB,2103.7309,NaN
,MultiRec,909.4562000000003,NaN
,Regular,344.42094999999995,2.556754420939352e-7
Update/Logic,Hand,780.0482,2.132480599880018e-7
,EMGM,1949.7211499999999,4.76837158203125e-7
,SYB,3278.8044500000005,NaN
,MultiRec,2121.732,0.0
,Regular,794.6491999999996,6.03156597169567e-7
-------------------------------------
