
Results:
Number of repetitions: 10
Compiler flags: -O2
Environment: linux,x86_64,Version {versionBranch = [6,10], versionTags = []}
CPU time precision: 10.0 (ms)

Eq/Tree,Hand,406.02479999999997,1.5078914929239175e-7
,EMGM,430.02609999999993,2.821006671476181e-7
,SYB,6541.6082,6.743495761743046e-7
,MultiRec,972.4601999999998,4.6476337169689957e-7
,Regular,794.4491,NaN
Eq/Logic,Hand,1300.8808999999999,2.611744678045111e-7
,EMGM,2424.9508,NaN
,SYB,14092.4799,0.0
,MultiRec,2013.3249,NaN
,Regular,2073.3288000000002,NaN
Map/Tree,Hand,1904.5182,NaN
,EMGM,2082.1297,1.5078914929239175e-7
,SYB,22879.8292,NaN
Read/Tree,Hand,690.0427,2.132480599880018e-7
,EMGM,5913.968999999999,7.387129490294298e-7
,SYB,14337.6954,NaN
,MultiRec,6156.7843,NaN
,Regular,5907.9686,NaN
Read/Logic,Hand,700.8430999999998,4.264961199760036e-7
,EMGM,2759.7716999999993,7.688768146799612e-7
,SYB,6365.597,6.743495761743046e-7
Show/Tree,Hand,1436.0891,3.371747880871523e-7
,EMGM,2615.3629,NaN
,SYB,6641.2143,4.264961199760036e-7
,MultiRec,4673.4916,NaN
,Regular,2109.3311000000003,NaN
Show/Logic,Hand,200.41209999999995,2.1981106894714564e-7
,EMGM,321.61980000000005,NaN
,SYB,585.6360999999999,1.066240299940009e-7
,MultiRec,532.4330000000001,NaN
,Regular,241.61479999999997,1.3058723390225555e-7
Update/Tree,Hand,890.0551000000002,NaN
,EMGM,1114.0691,2.132480599880018e-7
,SYB,6731.220000000001,NaN
,MultiRec,3060.5903999999996,6.03156597169567e-7
,Regular,1190.474,2.132480599880018e-7
Update/Logic,Hand,3035.7892999999995,7.072638022514022e-7
,EMGM,16158.209200000001,NaN
,SYB,18431.551199999994,2.3360154559928683e-6
,MultiRec,22291.7924,1.206313194339134e-6
,Regular,8024.900899999999,1.087356019114626e-6
-------------------------------------
