
Results:
Number of repetitions: 10
Compiler flags: -O1 -funfolding-creation-threshold=450 -funfolding-use-threshold=60
Environment: linux,x86_64,Version {versionBranch = [6,10], versionTags = []}
CPU time precision: 10.0 (ms)

Eq/Tree,Hand,393.224,1.066240299940009e-7
,EMGM,420.0257,1.6858739404357614e-7
,SYB,4788.2985,0.0
,MultiRec,910.0561000000001,NaN
,Regular,766.8472000000002,NaN
Eq/Logic,Hand,1310.0811,NaN
,EMGM,1354.4841000000001,NaN
,SYB,9937.0203,NaN
,MultiRec,1974.9226999999998,4.523674478771752e-7
,Regular,1808.9122000000002,NaN
Map/Tree,Hand,1927.7197999999996,5.642013342952362e-7
,EMGM,1996.5242999999998,4.523674478771752e-7
,SYB,22561.4093,8.529922399520072e-7
Read/Tree,Hand,692.8425999999998,4.264961199760036e-7
,EMGM,5862.3658,6.03156597169567e-7
,SYB,18503.9559,NaN
,MultiRec,5935.970300000001,NaN
,Regular,5876.3665,NaN
Read/Logic,Hand,688.8424000000001,NaN
,EMGM,2451.7526999999995,6.397441799640054e-7
,SYB,8286.117199999999,1.0446978712180444e-6
Show/Tree,Hand,1456.8906000000002,NaN
,EMGM,1619.7007000000003,NaN
,SYB,6187.985899999999,1.1284026685904724e-6
,MultiRec,4061.0533999999993,7.072638022514022e-7
,Regular,1450.4902,NaN
Show/Logic,Hand,193.21169999999998,1.4105033357380905e-7
,EMGM,214.81299999999996,2.132480599880018e-7
,SYB,475.62919999999997,1.5078914929239175e-7
,MultiRec,494.03019999999987,3.371747880871523e-7
,Regular,208.01239999999999,1.3058723390225555e-7
Update/Tree,Hand,866.0534999999998,4.76837158203125e-7
,EMGM,1134.0702999999999,2.611744678045111e-7
,SYB,6457.603,0.0
,MultiRec,3045.3895999999995,6.397441799640054e-7
,Regular,904.4560000000004,NaN
Update/Logic,Hand,2885.3798,NaN
,EMGM,3102.9934,4.76837158203125e-7
,SYB,25325.582000000002,NaN
,MultiRec,22097.3804,1.3486991523486091e-6
,Regular,2914.5815000000002,NaN
-------------------------------------
