
Results:
Number of repetitions: 10
Compiler flags: -O1 -funfolding-use-threshold=60
Environment: linux,i386,Version {versionBranch = [6,13], versionTags = []}
CPU time precision: 10.0 (ms)

Eq/Tree,Hand,280.41700000000003,6.915875488886249
,EMGM,277.2169,7.315511700033922
,SYB,2146.1337,24.167517272616678
,MultiRec,966.8597,12.796391870367215
,Regular,572.4351999999999,11.693181335006006
Eq/Logic,Hand,589.2361,12.081637135660808
,EMGM,1612.9002000000003,13.831738099185019
,SYB,4550.2837,42.0925066755749
,MultiRec,1722.9073,14.733903481049698
,Regular,1220.8758000000003,14.824316396455574
Map/Tree,Hand,681.6423,11.501257922022644
,EMGM,701.6433,8.262784062019012
,SYB,8437.326700000001,77.37951854341738
Read/Tree,Hand,359.6222,8.527612689245323
,EMGM,2417.7504999999996,30.006177194593334
,SYB,5521.544800000001,63.08212367629284
,MultiRec,2462.1533999999997,29.168049552740303
,Regular,2460.1532999999995,21.417625172065982
Read/Logic,Hand,356.8219,9.578086116524299
,EMGM,1277.6794,20.327614546610093
,SYB,2479.3543000000004,27.766000060225533
Show/Tree,Hand,614.0377000000001,22.411673590390844
,EMGM,1078.0669999999998,23.11451688153281
,SYB,3333.8079,63.142578820475784
,MultiRec,3028.5886999999993,37.40464981508173
,Regular,906.0564,17.41120971098792
Show/Logic,Hand,89.205,8.443959089853
,EMGM,138.80800000000002,4.237819198072935
,SYB,304.8189,14.212176355740413
,MultiRec,337.2206,13.991432340305032
,Regular,112.0066,10.832420486668713
Update/Tree,Hand,354.0217,11.96366724759223
,EMGM,503.631,7.648267806794201
,SYB,3623.0261,46.308293573133874
,MultiRec,1813.3127,41.53122421624481
,Regular,999.2618999999999,23.462098089613974
Update/Logic,Hand,1042.4645,16.133663937728326
,EMGM,5346.3337,44.15418953080469
,SYB,5951.1714,50.38996558222443
,MultiRec,9096.168200000002,45.03894816415357
,Regular,3871.0415000000003,40.093474193993885
-------------------------------------
