
Results:
Number of repetitions: 10
Compiler flags: -O0
Environment: linux,x86_64,Version {versionBranch = [6,10], versionTags = []}
CPU time precision: 10.0 (ms)

Eq/Tree,Hand,831.6511000000003,NaN
,EMGM,4456.2781,NaN
,SYB,8744.1459,7.387129490294298e-7
,MultiRec,2383.7483,NaN
,Regular,1950.9214999999997,6.217195897295617e-7
Eq/Logic,Hand,1872.5162999999998,4.523674478771752e-7
,EMGM,3618.225499999999,9.295267433937991e-7
,SYB,20680.491900000005,NaN
,MultiRec,4349.0713000000005,NaN
,Regular,3875.4416999999994,8.259061849445711e-7
Map/Tree,Hand,2225.3386999999993,8.529922399520072e-7
,EMGM,7283.654400000001,NaN
,SYB,68369.47209999998,3.6189395830174018e-6
Read/Tree,Hand,793.2492,0.0
,EMGM,6439.2017,6.03156597169567e-7
,SYB,19213.6,1.0446978712180444e-6
,MultiRec,6690.017499999999,9.047348957543504e-7
,Regular,6085.1799,0.0
Read/Logic,Hand,802.8499,NaN
,EMGM,3073.3912999999993,7.979011788693195e-7
,SYB,8634.539,0.0
Show/Tree,Hand,3912.6442,NaN
,EMGM,8527.7323,7.387129490294298e-7
,SYB,16539.0329,1.0446978712180444e-6
,MultiRec,9840.2142,NaN
,Regular,5842.364500000001,NaN
Show/Logic,Hand,508.4313000000001,NaN
,EMGM,702.8437,NaN
,SYB,1514.4942999999998,4.264961199760036e-7
,MultiRec,1098.8681,2.611744678045111e-7
,Regular,646.4399999999999,1.5078914929239175e-7
Update/Tree,Hand,1865.3159,NaN
,EMGM,5375.9354,NaN
,SYB,17743.1083,6.03156597169567e-7
,MultiRec,7399.2617,3.015782985847835e-7
,Regular,4491.8799,0.0
Update/Logic,Hand,3221.8004,0.0
,EMGM,16083.804699999999,1.1284026685904724e-6
,SYB,72678.9415,NaN
,MultiRec,38376.39750000001,NaN
,Regular,18218.3379,1.0446978712180444e-6
-------------------------------------
