
Results:
Number of repetitions: 10
Compiler flags: -O1 -funfolding-creation-threshold=1000 -funfolding-use-threshold=180
Environment: darwin,i386,Version {versionBranch = [6,10], versionTags = []}
CPU time precision: 10.0 (ms)

Eq/Tree,Hand,510.82640000000004,NaN
,EMGM,565.2526,NaN
,SYB,6367.1585,5.223489356090222e-7
,MultiRec,1288.4377,2.611744678045111e-7
,Regular,1072.9777,2.611744678045111e-7
Eq/Logic,Hand,1524.5778999999998,5.001110306597479e-7
,EMGM,1588.2325999999998,4.264961199760036e-7
,SYB,12114.668699999998,1.206313194339134e-6
,MultiRec,2507.1828,NaN
,Regular,2294.0648,NaN
Map/Tree,Hand,2351.4078999999997,5.642013342952362e-7
,EMGM,2408.2828,2.132480599880018e-7
,SYB,26617.7434,1.0446978712180444e-6
Read/Tree,Hand,910.9690999999999,3.015782985847835e-7
,EMGM,7251.137199999999,8.529922399520072e-7
,SYB,23745.5129,NaN
,MultiRec,7296.744100000001,NaN
,Regular,7283.280199999999,8.529922399520072e-7
Read/Logic,Hand,951.4231000000002,NaN
,EMGM,3187.2908,NaN
,SYB,10679.095000000001,NaN
Show/Tree,Hand,1917.0938999999998,3.9895058943465975e-7
,EMGM,2124.6582,3.015782985847835e-7
,SYB,8551.678899999999,9.5367431640625e-7
,MultiRec,5061.541899999999,8.529922399520072e-7
,Regular,1888.7512000000002,NaN
Show/Logic,Hand,245.35940000000005,NaN
,EMGM,269.1787,7.539457464619587e-8
,SYB,630.0328999999999,2.132480599880018e-7
,MultiRec,639.9746999999999,3.536319011257011e-7
,Regular,235.57900000000004,NaN
Update/Tree,Hand,1092.0653,1.5078914929239175e-7
,EMGM,1514.8497,1.5078914929239175e-7
,SYB,9777.7158,4.264961199760036e-7
,MultiRec,4242.8516,0.0
,Regular,1093.0974,NaN
Update/Logic,Hand,3340.6767999999997,5.223489356090222e-7
,EMGM,3302.1411,3.015782985847835e-7
,SYB,31105.9891,1.206313194339134e-6
,MultiRec,22250.808699999998,1.595802357738639e-6
,Regular,3344.5969000000005,NaN
-------------------------------------
