
Results:
Number of repetitions: 10
Compiler flags: -O1 -funfolding-creation-threshold=90
Environment: darwin,i386,Version {versionBranch = [6,10], versionTags = []}
CPU time precision: 10.0 (ms)

Eq/Tree,Hand,515.5631,1.8467823725735746e-7
,EMGM,565.4273000000001,NaN
,SYB,8459.788100000002,NaN
,MultiRec,1316.9075,NaN
,Regular,1096.3197,NaN
Eq/Logic,Hand,1501.3486,0.0
,EMGM,1793.3533,1.5078914929239175e-7
,SYB,18634.8365,NaN
,MultiRec,2512.5085,3.015782985847835e-7
,Regular,2583.8306000000002,NaN
Map/Tree,Hand,2350.8852,NaN
,EMGM,2411.2613,NaN
,SYB,27674.682299999997,1.7059844799040143e-6
Read/Tree,Hand,925.5377999999998,3.9895058943465975e-7
,EMGM,7269.731300000001,NaN
,SYB,18106.287000000004,NaN
,MultiRec,7527.582700000001,NaN
,Regular,7338.4812999999995,8.529922399520072e-7
Read/Logic,Hand,979.5971999999999,2.611744678045111e-7
,EMGM,3186.329,NaN
,SYB,8123.114,6.743495761743046e-7
Show/Tree,Hand,1913.1618999999998,3.9895058943465975e-7
,EMGM,3373.5822999999996,6.397441799640054e-7
,SYB,9041.2225,4.264961199760036e-7
,MultiRec,5958.5237,6.03156597169567e-7
,Regular,2435.2259,2.132480599880018e-7
Show/Logic,Hand,247.08360000000002,NaN
,EMGM,363.12420000000003,NaN
,SYB,777.0755,NaN
,MultiRec,659.0615,NaN
,Regular,293.2629,0.0
Update/Tree,Hand,1095.6089,2.611744678045111e-7
,EMGM,1512.3401999999999,3.693564745147149e-7
,SYB,10240.4321,0.0
,MultiRec,4211.0697,NaN
,Regular,1544.2382000000002,NaN
Update/Logic,Hand,3336.5773,2.132480599880018e-7
,EMGM,7677.1038,0.0
,SYB,19642.250400000004,NaN
,MultiRec,22253.384100000003,NaN
,Regular,9985.0318,NaN
-------------------------------------
