
Results:
Number of repetitions: 20
Compiler flags: -O2 -funfolding-creation-threshold=1000 -funfolding-use-threshold=180
Environment: darwin,i386,Version {versionBranch = [6,10], versionTags = []}
CPU time precision: 10.0 (ms)

Eq/Tree,Hand,512.25985,NaN
,EMGM,564.44095,NaN
,SYB,6592.875,NaN
,MultiRec,1273.82755,1.8467823725735746e-7
,Regular,1068.2991499999998,4.1295309247228556e-7
Eq/Logic,Hand,386.4831,1.5078914929239175e-7
,EMGM,399.25015,NaN
,SYB,2330.3594000000003,NaN
,MultiRec,678.356,0.0
,Regular,625.3380500000001,NaN
Map/Tree,Hand,480.0715,NaN
,EMGM,500.24980000000005,NaN
,SYB,3165.0279,NaN
Read/Tree,Hand,337.2685,NaN
,EMGM,1338.12545,0.0
,SYB,3558.3380000000006,NaN
,MultiRec,1368.91725,1.8467823725735746e-7
,Regular,1374.2833999999998,4.396221378942913e-7
Read/Logic,Hand,950.0008499999997,5.791167164559898e-7
,EMGM,3135.39535,5.001110306597479e-7
,SYB,10689.8662,NaN
Show/Tree,Hand,2255.1183000000005,NaN
,EMGM,2130.5351,NaN
,SYB,8503.576649999999,9.5367431640625e-7
,MultiRec,5136.075850000001,NaN
,Regular,1880.7397500000002,NaN
Show/Logic,Hand,249.50989999999996,2.0647654623614278e-7
,EMGM,271.32185000000004,NaN
,SYB,646.1913,2.132480599880018e-7
,MultiRec,637.3590999999999,3.1085979486478084e-7
,Regular,233.05540000000002,NaN
Update/Tree,Hand,410.3009,NaN
,EMGM,521.22855,NaN
,SYB,3207.29525,NaN
,MultiRec,1259.3134000000002,NaN
,Regular,415.5764499999999,3.0625420996344397e-7
Update/Logic,Hand,913.5438,NaN
,EMGM,863.8995499999999,3.6157967777498007e-7
,SYB,4654.268099999999,7.979011788693195e-7
,MultiRec,2626.2544000000003,NaN
,Regular,895.6221499999999,2.821006671476181e-7
-------------------------------------
