
Results:
Number of repetitions: 10
Compiler flags: -O1 -funfolding-use-threshold=60
Environment: darwin,i386,Version {versionBranch = [6,10], versionTags = []}
CPU time precision: 10.0 (ms)

Eq/Tree,Hand,533.7071,1.5078914929239175e-7
,EMGM,565.7403,NaN
,SYB,6378.849,NaN
,MultiRec,1287.5759000000003,NaN
,Regular,1105.3521999999998,4.264961199760036e-7
Eq/Logic,Hand,1506.5667,NaN
,EMGM,2863.6621999999998,5.223489356090222e-7
,SYB,12372.0664,6.03156597169567e-7
,MultiRec,2487.1965,2.132480599880018e-7
,Regular,2299.1176,NaN
Map/Tree,Hand,2352.603,NaN
,EMGM,2403.9535,NaN
,SYB,26192.2828,NaN
Read/Tree,Hand,902.4181000000001,NaN
,EMGM,7246.3012,3.015782985847835e-7
,SYB,23556.582000000002,NaN
,MultiRec,7339.0288,0.0
,Regular,7281.153300000001,NaN
Read/Logic,Hand,946.8713,NaN
,EMGM,3415.8855000000003,NaN
,SYB,10681.6718,4.264961199760036e-7
Show/Tree,Hand,1907.6016,1.5078914929239175e-7
,EMGM,3549.928,2.132480599880018e-7
,SYB,8372.3707,7.387129490294298e-7
,MultiRec,6023.6975,NaN
,Regular,1876.2153000000003,NaN
Show/Logic,Hand,243.9819,5.331201499700045e-8
,EMGM,408.5623,7.539457464619587e-8
,SYB,626.5573,NaN
,MultiRec,674.8659,0.0
,Regular,254.79209999999998,1.5993604499100135e-7
Update/Tree,Hand,1097.5436,2.132480599880018e-7
,EMGM,1471.5992,NaN
,SYB,9730.590800000002,NaN
,MultiRec,4404.015600000001,NaN
,Regular,1109.104,NaN
Update/Logic,Hand,3347.1313999999998,5.223489356090222e-7
,EMGM,17496.676399999997,1.595802357738639e-6
,SYB,31208.1468,1.3486991523486091e-6
,MultiRec,22252.6907,8.529922399520072e-7
,Regular,3350.446999999999,8.529922399520072e-7
-------------------------------------
