
Results:
Number of repetitions: 10
Compiler flags: -O1 -fforce-recomp -funfolding-creation-threshold=180
Environment: mingw32,i386,Version {versionBranch = [6,10], versionTags = []}
CPU time precision: 1.0 (ms)

Eq/Logic,Regular,2909.375
Show/Logic,Regular,4060.9375
-------------------------------------
