
Results:
Number of repetitions: 10
Compiler flags: -O2 -fforce-recomp
Environment: mingw32,i386,Version {versionBranch = [6,10], versionTags = []}
CPU time precision: 1.0 (ms)

Eq/Logic,Regular,2909.375
Show/Logic,Regular,4028.125
-------------------------------------
