
Results:
Number of repetitions: 10
Compiler flags: -O1 -funfolding-creation-threshold=450 -funfolding-use-threshold=60
Environment: mingw32,i386,Version {versionBranch = [6,10], versionTags = []}
CPU time precision: 1.0 (ms)

Eq/Tree,Hand,248.4375,4.941058844013093
,EMGM,243.75,8.068715304598784
,SYB,3960.9375,11.048543456039805
,MultiRec,562.5,0.0
,Regular,218.75,0.0
Eq/Logic,Hand,698.4375,7.547592055306999
,EMGM,756.25,10.925092168439079
,SYB,7475.0,10.925092168439079
,MultiRec,1257.8125,8.235098073355154
,Regular,703.125,0.0
Map/Tree,Hand,1201.5625,4.941058844013093
,EMGM,1178.125,8.068715304598784
,SYB,13039.0625,16.876928902103803
Read/Tree,Hand,468.75,0.0
,EMGM,3739.0625,7.547592055306999
,SYB,12160.9375,10.54607121422739
,MultiRec,3764.0625,4.941058844013093
,Regular,3757.8125,11.048543456039805
Read/Logic,Hand,478.125,8.068715304598784
,EMGM,1567.1875,7.547592055306999
,SYB,5523.4375,15.18477055949297
Show/Tree,Hand,940.625,6.588078458684124
,EMGM,1098.4375,7.547592055306999
,SYB,4864.0625,10.54607121422739
,MultiRec,2781.25,0.0
,Regular,950.0,6.588078458684124
Show/Logic,Hand,125.0,0.0
,EMGM,140.625,0.0
,SYB,376.5625,4.941058844013093
,MultiRec,337.5,8.068715304598784
,Regular,131.25,8.068715304598784
Update/Tree,Hand,560.9375,4.941058844013093
,EMGM,726.5625,8.235098073355154
,SYB,5614.0625,12.863634411696323
,MultiRec,2609.375,7.36569563735987
,Regular,621.875,6.588078458684124
Update/Logic,Hand,1700.0,6.588078458684124
,EMGM,1607.8125,4.941058844013093
,SYB,16265.625,12.75775907699572
,MultiRec,12457.8125,20.898336091394665
,Regular,1379.6875,7.547592055306999
-------------------------------------
