
Results:
Number of repetitions: 10
Compiler flags: -O2
Environment: mingw32,i386,Version {versionBranch = [6,8], versionTags = []}
CPU time precision: 1.0 (ms)

Eq/Tree,Hand,245.3125,7.547592055306999
,EMGM,273.4375,8.235098073355154
,SYB,2859.375,16.470196146710308
,MultiRec,609.375,10.416666666666666
,Regular,242.1875,8.235098073355154
Eq/Logic,Hand,673.4375,4.941058844013093
,EMGM,1317.1875,10.54607121422739
,SYB,6473.4375,18.11721576138134
,MultiRec,1190.625,12.325166214790867
,Regular,809.375,6.588078458684124
Map/Tree,Hand,939.0625,11.529137302697217
,EMGM,965.625,6.588078458684124
,SYB,11634.375,13.176156917368248
Read/Tree,Hand,471.875,6.588078458684124
,EMGM,3181.25,13.176156917368248
,SYB,7595.3125,21.411254990723403
,MultiRec,3201.5625,13.681172433920517
,Regular,3198.4375,27.609079751455358
Read/Logic,Hand,493.75,8.068715304598784
,EMGM,1601.5625,8.235098073355154
,SYB,3423.4375,11.529137302697217
Show/Tree,Hand,800.0,6.588078458684124
,EMGM,1685.9375,8.869472065586667
,SYB,4467.1875,11.529137302697217
,MultiRec,2893.75,24.206145913796355
,Regular,970.3125,18.706546870904138
Show/Logic,Hand,107.8125,4.941058844013093
,EMGM,184.375,6.588078458684124
,SYB,373.4375,4.941058844013093
,MultiRec,306.25,8.068715304598784
,Regular,117.1875,8.235098073355154
Update/Tree,Hand,815.625,9.882117688026186
,EMGM,918.75,9.882117688026186
,SYB,5006.25,16.79637030895531
,MultiRec,2623.4375,11.529137302697217
,Regular,929.6875,8.235098073355154
Update/Logic,Hand,1446.875,10.925092168439079
,EMGM,7535.9375,19.557274328665194
,SYB,8037.5,44.9247055267663
,MultiRec,11254.6875,71.05128844910399
,Regular,3081.25,9.882117688026186
-------------------------------------
