
Results:
Number of repetitions: 10
Compiler flags: -O2
Environment: mingw32,i386,Version {versionBranch = [6,10], versionTags = []}
CPU time precision: 1.0 (ms)

Eq/Tree,Hand,245.3125,7.547592055306999
,EMGM,256.25,8.068715304598784
,SYB,5629.6875,7.547592055306999
,MultiRec,587.5,10.925092168439079
,Regular,225.0,8.068715304598784
Eq/Logic,Hand,715.625,6.588078458684124
,EMGM,1754.6875,7.547592055306999
,SYB,11668.75,17.738944131173334
,MultiRec,1265.625,0.0
,Regular,857.8125,4.941058844013093
Map/Tree,Hand,1068.75,8.068715304598784
,EMGM,1103.125,8.068715304598784
,SYB,12781.25,10.416666666666666
Read/Tree,Hand,481.25,6.588078458684124
,EMGM,3776.5625,7.547592055306999
,SYB,9287.5,13.176156917368248
,MultiRec,3909.375,9.882117688026186
,Regular,3765.625,10.416666666666666
Read/Logic,Hand,501.5625,4.941058844013093
,EMGM,1750.0,0.0
,SYB,4209.375,8.068715304598784
Show/Tree,Hand,973.4375,7.547592055306999
,EMGM,1831.25,6.588078458684124
,SYB,5165.625,8.068715304598784
,MultiRec,3321.875,8.068715304598784
,Regular,1289.0625,8.235098073355154
Show/Logic,Hand,125.0,0.0
,EMGM,229.6875,7.547592055306999
,SYB,425.0,6.588078458684124
,MultiRec,343.75,0.0
,Regular,153.125,6.588078458684124
Update/Tree,Hand,567.1875,7.547592055306999
,EMGM,817.1875,7.547592055306999
,SYB,5551.5625,16.552342272990316
,MultiRec,2740.625,8.068715304598784
,Regular,742.1875,8.235098073355154
Update/Logic,Hand,1692.1875,7.547592055306999
,EMGM,9239.0625,10.54607121422739
,SYB,9765.625,10.416666666666666
,MultiRec,12690.625,14.358384116760648
,Regular,3514.0625,8.869472065586667
-------------------------------------
