
Results:
Number of repetitions: 10
Compiler flags: -O0
Environment: linux,i386,Version {versionBranch = [6,12], versionTags = []}
CPU time precision: 10.0 (ms)

Eq/Tree,Hand,518.0319000000001,8.485778972296343
,EMGM,3002.9873999999995,66.29776748076317
,SYB,4031.0515,41.78743574130077
,MultiRec,1223.6762,27.67922933175701
,Regular,970.0600999999999,12.401379873492592
Eq/Logic,Hand,1086.4672999999998,14.752181036865153
,EMGM,2324.5448000000006,23.283264422708886
,SYB,9591.799,67.4870523779684
,MultiRec,2370.5475,16.460970703454848
,Regular,2114.1315999999997,28.799953762308544
Map/Tree,Hand,748.0462000000001,17.283055322739934
,EMGM,2698.1681999999996,25.872988964469293
,SYB,34925.3822,234.23232273194114
Read/Tree,Hand,388.4238,12.572393070180034
,EMGM,2696.9680999999996,37.610941751481434
,SYB,7534.4704,47.19046993761912
,MultiRec,2795.7742999999996,31.860115160041584
,Regular,2682.5671,34.73042094139751
Read/Logic,Hand,374.423,13.360738527491662
,EMGM,1393.6865999999998,23.187690269719464
,SYB,3409.0125,23.386320846217423
Show/Tree,Hand,1591.2991000000002,22.925428916137857
,EMGM,3985.048500000001,39.27610535469801
,SYB,7946.496200000001,30.245249451773372
,MultiRec,4061.8534999999997,47.33901383108858
,Regular,2608.5625000000005,37.166227277671844
Show/Logic,Hand,224.4136,5.797118100113765
,EMGM,326.82000000000005,15.555663513117448
,SYB,794.4493,19.974588350924495
,MultiRec,453.6281,20.674355598986224
,Regular,296.81800000000004,16.199972613145572
Update/Tree,Hand,848.4526,21.784120665189914
,EMGM,2510.9563,37.433115535282106
,SYB,10890.2801,62.37755733247879
,MultiRec,3082.9920999999995,34.824720525160814
,Regular,1801.7121,24.163730435188285
Update/Logic,Hand,1131.2703,21.4011962700427
,EMGM,5389.9364000000005,36.914320097581054
,SYB,42115.8315,227.0964801807815
,MultiRec,11814.737799999999,143.50480313045648
,Regular,5640.352100000001,73.97776858917365
-------------------------------------
