
Results:
Number of repetitions: 20
Compiler flags: -O1
Environment: linux,x86_64,Version {versionBranch = [6,10], versionTags = []}
CPU time precision: 10.0 (ms)

Eq/Tree,Hand,415.42519999999985,3.693564745147149e-7
,EMGM,414.62514999999985,3.654887608708356e-7
,SYB,6275.791400000002,NaN
,MultiRec,1004.0620500000001,NaN
,Regular,845.65235,2.384185791015625e-7
Eq/Logic,Hand,379.8230000000001,NaN
,EMGM,736.84535,NaN
,SYB,2507.9561500000004,NaN
,MultiRec,618.4379500000002,NaN
,Regular,594.83645,NaN
Map/Tree,Hand,370.42285000000004,NaN
,EMGM,415.8255499999999,2.9682873721095876e-7
,SYB,2031.1263999999996,5.741879739185475e-7
Read/Tree,Hand,254.41524999999996,1.884864366154897e-7
,EMGM,1085.0670499999994,7.614478789649635e-7
,SYB,2184.7358499999996,6.572746635480032e-7
,MultiRec,1161.67195,NaN
,Regular,1115.8690499999998,4.1295309247228556e-7
Read/Logic,Hand,701.6433499999998,4.1295309247228556e-7
,EMGM,2668.9661499999993,9.172145872913049e-7
,SYB,6388.9986,4.264961199760036e-7
Show/Tree,Hand,1822.9134500000005,NaN
,EMGM,2657.1656000000003,NaN
,SYB,6825.825950000003,NaN
,MultiRec,4751.696350000001,NaN
,Regular,1969.9225999999999,4.264961199760036e-7
Show/Logic,Hand,190.0114,NaN
,EMGM,311.41900000000015,NaN
,SYB,555.4342499999999,2.821006671476181e-7
,MultiRec,539.8332,NaN
,Regular,233.01400000000007,NaN
Update/Tree,Hand,344.42099999999994,2.821006671476181e-7
,EMGM,413.42534999999987,3.4959026094949676e-7
,SYB,2156.9339999999997,5.223489356090222e-7
,MultiRec,898.4558000000003,NaN
,Regular,420.0259499999999,3.153981341200579e-7
Update/Logic,Hand,765.4473500000001,NaN
,EMGM,1894.7177999999997,5.223489356090222e-7
,SYB,1846.9148000000005,NaN
,MultiRec,2101.9307,3.015782985847835e-7
,Regular,1352.6839499999996,6.485686544769021e-7
-------------------------------------
