
Results:
Number of repetitions: 10
Compiler flags: -O1 -funfolding-creation-threshold=90
Environment: linux,i386,Version {versionBranch = [6,8], versionTags = []}
CPU time precision: 10.0 (ms)

Eq/Tree,Hand,272.81669999999997,4.917235019127447
,EMGM,285.2172,9.438097757964188
,SYB,2174.1351999999997,32.18203784307843
,MultiRec,612.8378,13.307421520005693
,Regular,261.21580000000006,5.007070596222467
Eq/Logic,Hand,612.0379,14.484719960089745
,EMGM,933.258,11.933854765144208
,SYB,4354.6714999999995,104.67431414020466
,MultiRec,1163.2721000000001,22.29641132285147
,Regular,919.6569999999999,16.595608562374434
Map/Tree,Hand,676.4416000000001,11.843925796232718
,EMGM,692.0427,15.319762146761049
,SYB,8740.145800000002,72.26201597858247
Read/Tree,Hand,355.2215,6.7465217581605135
,EMGM,2483.7547,27.679462173845376
,SYB,5459.1406,29.033571431093947
,MultiRec,2572.5602,34.43433433459494
,Regular,2532.9577999999997,18.932779386262553
Read/Logic,Hand,382.4235,14.386104439508433
,EMGM,1165.6723,24.1637157189131
,SYB,2377.3479,21.995581437340178
Show/Tree,Hand,611.2378000000001,22.45520186603641
,EMGM,1192.8740000000003,12.480028516705294
,SYB,3078.9919999999993,15.669786958773132
,MultiRec,2027.3263,47.73560153374935
,Regular,732.0452000000001,17.076013096999247
Show/Logic,Hand,91.20509999999999,9.578410938146263
,EMGM,136.80810000000002,6.477708810477148
,SYB,292.4178,15.138712728190152
,MultiRec,247.6148,9.513116124593465
,Regular,101.60589999999999,6.022505965127807
Update/Tree,Hand,599.2368,15.97866914775239
,EMGM,665.6411,18.97002551073083
,SYB,3664.2285,50.38846439690117
,MultiRec,1868.1160000000004,31.94637179190563
,Regular,667.2410000000001,21.150277150797717
Update/Logic,Hand,1096.0682000000002,13.334333335833122
,EMGM,2346.5464,35.88835286520941
,SYB,5921.9696,41.708774560969495
,MultiRec,8449.7274,88.2486327740487
,Regular,2249.3400999999994,23.328908192054996
-------------------------------------
