
Results:
Number of repetitions: 20
Compiler flags: -O1
Environment: linux,x86_64,Version {versionBranch = [6,10], versionTags = []}
CPU time precision: 10.0 (ms)

Eq/Tree,Hand,414.62514999999985,3.654887608708356e-7
,EMGM,414.0253499999999,3.153981341200579e-7
,SYB,6293.5929,5.642013342952362e-7
,MultiRec,1004.2621500000001,NaN
,Regular,858.4529499999999,3.536319011257011e-7
Eq/Logic,Hand,379.22310000000004,NaN
,EMGM,738.4455,NaN
,SYB,2510.9562,NaN
,MultiRec,630.2387000000002,NaN
,Regular,598.6367500000001,NaN
Map/Tree,Hand,373.4230000000001,NaN
,EMGM,417.4257499999999,3.4959026094949676e-7
,SYB,2029.5262499999997,5.540347117720724e-7
Read/Tree,Hand,258.41575,9.233911862867873e-8
,EMGM,1085.8672499999996,6.658668538937064e-7
,SYB,2189.9365,5.223489356090222e-7
,MultiRec,1169.07255,NaN
,Regular,1121.6694999999997,4.523674478771752e-7
Read/Logic,Hand,703.0435499999999,3.536319011257011e-7
,EMGM,2676.1665500000004,NaN
,SYB,6422.200599999998,1.2794883599280108e-6
Show/Tree,Hand,1836.1141500000006,NaN
,EMGM,2663.1657999999998,5.840038639982171e-7
,SYB,6834.426450000002,NaN
,MultiRec,4766.297350000001,NaN
,Regular,1993.52395,1.066240299940009e-7
Show/Logic,Hand,193.41180000000006,NaN
,EMGM,317.0193000000001,NaN
,SYB,556.2340999999999,3.015782985847835e-7
,MultiRec,539.63315,1.066240299940009e-7
,Regular,237.61430000000004,NaN
Update/Tree,Hand,345.4210499999999,3.015782985847835e-7
,EMGM,415.0253999999999,3.371747880871523e-7
,SYB,2158.1341999999995,7.387129490294298e-7
,MultiRec,917.0568999999999,3.015782985847835e-7
,Regular,421.82604999999995,2.384185791015625e-7
Update/Logic,Hand,785.0484499999999,3.286373317740016e-7
,EMGM,1908.7187499999995,6.397441799640054e-7
,SYB,1872.3165500000002,NaN
,MultiRec,2108.7311500000005,NaN
,Regular,1381.6857999999995,7.072638022514022e-7
-------------------------------------
