
Results:
Number of repetitions: 10
Compiler flags: -O2
Environment: linux,i386,Version {versionBranch = [6,10], versionTags = []}
CPU time precision: 10.0 (ms)

Eq/Tree,Hand,291.21770000000004,9.199826122149146
,EMGM,289.2176,12.65684534330906
,SYB,2940.983300000001,41.988796468820155
,MultiRec,575.2355,15.64148335001796
,Regular,274.8166,10.675779474013943
Eq/Logic,Hand,902.0557000000001,8.27373356606453
,EMGM,1266.8789,24.518232723379064
,SYB,6152.7839,46.13107998940519
,MultiRec,1180.0733,18.379964986364936
,Regular,935.2580000000002,7.254607761814391
Map/Tree,Hand,738.0455,12.824265222616104
,EMGM,746.8464,19.142859464794952
,SYB,8961.759600000001,77.88897069433003
Read/Tree,Hand,365.62230000000005,10.700604375973874
,EMGM,2564.5595999999996,32.30318049425549
,SYB,5372.3352,28.15995585855123
,MultiRec,2595.3619000000003,32.86820558077367
,Regular,2527.3572999999997,42.951907051310876
Read/Logic,Hand,355.2216,15.641574282803022
,EMGM,1249.2775000000001,15.555963531356332
,SYB,2419.7508,29.902743173309204
Show/Tree,Hand,638.8394000000001,17.894535511031172
,EMGM,1163.2721,27.052314809354996
,SYB,2940.9832,33.19105106902563
,MultiRec,2159.3344,28.0207035092904
,Regular,821.2509,16.227200795440844
Show/Logic,Hand,95.20519999999999,5.593917347341566
,EMGM,153.20890000000003,8.443869603314445
,SYB,300.4183,5.481824555342468
,MultiRec,256.8155,10.46535025957353
,Regular,110.00619999999999,5.735348517938752
Update/Tree,Hand,380.02329999999995,12.365399773831276
,EMGM,520.8320000000001,13.440535744943775
,SYB,3525.819900000001,22.00742101832432
,MultiRec,1404.0871,20.913748840044036
,Regular,505.6313,14.509209374661944
Update/Logic,Hand,1133.2701,17.993695231941633
,EMGM,5806.3622000000005,43.70863131083674
,SYB,6450.0027,38.70128572957519
,MultiRec,7416.8631,69.70733691728573
,Regular,2417.7508000000003,50.67665524523544
-------------------------------------
