
Results:
Number of repetitions: 10
Compiler flags: -O1 -funfolding-use-threshold=60
Environment: linux,x86_64,Version {versionBranch = [6,10], versionTags = []}
CPU time precision: 10.0 (ms)

Eq/Tree,Hand,390.02369999999996,2.132480599880018e-7
,EMGM,419.2254,1.066240299940009e-7
,SYB,4622.6882,3.015782985847835e-7
,MultiRec,909.6564000000001,NaN
,Regular,767.6474000000001,NaN
Eq/Logic,Hand,1306.0810000000001,NaN
,EMGM,2334.5452,0.0
,SYB,9735.807600000004,NaN
,MultiRec,1997.3240999999998,4.523674478771752e-7
,Regular,1807.7123,3.9895058943465975e-7
Map/Tree,Hand,1919.3192999999997,5.001110306597479e-7
,EMGM,2012.1251,2.132480599880018e-7
,SYB,22603.8121,8.529922399520072e-7
Read/Tree,Hand,678.8420000000001,NaN
,EMGM,5766.759599999999,7.387129490294298e-7
,SYB,18546.758299999998,1.3486991523486091e-6
,MultiRec,5909.9687,NaN
,Regular,5887.567300000001,NaN
Read/Logic,Hand,687.6423000000001,NaN
,EMGM,2688.5675,NaN
,SYB,8286.917199999998,1.3486991523486091e-6
Show/Tree,Hand,1420.4883000000002,NaN
,EMGM,2644.1646000000005,NaN
,SYB,6140.7832,3.015782985847835e-7
,MultiRec,4807.4999,5.223489356090222e-7
,Regular,1433.6892,NaN
Show/Logic,Hand,193.61189999999996,1.922192036699903e-7
,EMGM,321.6198,NaN
,SYB,480.0294,NaN
,MultiRec,551.6339999999999,3.015782985847835e-7
,Regular,207.6127,1.1920928955078125e-7
Update/Tree,Hand,861.6533,2.132480599880018e-7
,EMGM,1213.2754,2.132480599880018e-7
,SYB,6457.203,NaN
,MultiRec,3068.9911,NaN
,Regular,900.0556000000003,NaN
Update/Logic,Hand,2904.1809000000003,NaN
,EMGM,15826.588500000002,NaN
,SYB,25272.3788,1.3486991523486091e-6
,MultiRec,22055.7778,NaN
,Regular,2944.5834000000004,NaN
-------------------------------------
