
Results:
Number of repetitions: 10
Compiler flags: -O0
Environment: linux,i386,Version {versionBranch = [6,8], versionTags = []}
CPU time precision: 10.0 (ms)

Eq/Tree,Hand,513.6318,11.956320539549145
,EMGM,2922.182,131.62706940021454
,SYB,3962.6472000000003,56.79808146759886
,MultiRec,1201.2746000000002,21.171347551716124
,Regular,944.4585,13.39421106506669
Eq/Logic,Hand,1138.0706,31.68068466642311
,EMGM,2035.3267,43.608994059712
,SYB,9003.3621,72.7424822896191
,MultiRec,2454.953,24.005055064853856
,Regular,1943.7205999999994,20.436581624354183
Map/Tree,Hand,721.6446,12.394142005175045
,EMGM,2684.1672000000003,35.67956159048036
,SYB,32048.802400000004,184.18586108131768
Read/Tree,Hand,410.425,10.700571147788743
,EMGM,2727.3701,24.71681753808749
,SYB,7275.654,33.40471031656076
,MultiRec,2902.9807000000005,28.539673824539644
,Regular,2615.7628000000004,15.939797892208244
Read/Logic,Hand,407.22499999999997,12.191946376376686
,EMGM,1548.4959999999999,35.801800159582235
,SYB,3392.6113999999993,36.9744248732974
Show/Tree,Hand,1656.9030000000002,26.4539348469918
,EMGM,3791.4363999999996,55.615168327035015
,SYB,8195.3118,46.346611142563326
,MultiRec,4506.2808,50.043270276387425
,Regular,2733.7702000000004,52.77370736518963
Show/Logic,Hand,236.01400000000004,11.776511500062782
,EMGM,336.4204,11.693059700333169
,SYB,796.4491,10.906181758271048
,MultiRec,550.4336000000001,26.278582788608997
,Regular,294.81800000000004,11.783830748577097
Update/Tree,Hand,832.8513999999999,28.21052922501731
,EMGM,2316.9444000000003,34.50437918165047
,SYB,11452.7152,84.73213757194532
,MultiRec,3960.6467,53.78303997038059
,Regular,1857.7155999999995,34.266622649777176
Update/Logic,Hand,1155.2715999999998,24.13444201044553
,EMGM,5407.1376,66.43187200968458
,SYB,41064.1659,374.14252069185557
,MultiRec,14587.7112,158.24508616896236
,Regular,6554.8091,86.80936166931141
-------------------------------------
