
Results:
Number of repetitions: 10
Compiler flags: -O1 -funfolding-creation-threshold=90
Environment: linux,i386,Version {versionBranch = [6,13], versionTags = []}
CPU time precision: 10.0 (ms)

Eq/Tree,Hand,274.4167,6.311034464421102
,EMGM,2210.9376,40.70958180739922
,SYB,2131.7326999999996,30.66577831702454
,MultiRec,918.4567,14.991399053012577
,Regular,603.2370000000001,11.124387663547576
Eq/Logic,Hand,577.6355,15.911728757603806
,EMGM,1596.4990000000003,17.934200753495148
,SYB,4701.493299999999,24.517986178178116
,MultiRec,1800.5121,22.188623769099955
,Regular,1261.2782,16.336418795643855
Map/Tree,Hand,673.2414000000001,17.492621969784235
,EMGM,2197.3369,38.510123420702904
,SYB,8580.135800000002,54.70093083059322
Read/Tree,Hand,376.823,10.120079084012474
,EMGM,2557.7592,40.58483796471551
,SYB,5400.337000000001,38.46146707781397
,MultiRec,2467.7537,28.37695000857021
,Regular,2474.154,52.09717426331503
Read/Logic,Hand,376.0231,16.547279101276896
,EMGM,1286.8797,17.492782048287456
,SYB,2456.1526999999996,27.130925413426112
Show/Tree,Hand,612.4377000000001,17.12296188715284
,EMGM,1738.5083,34.8327075702963
,SYB,3127.3949999999995,40.12661080463527
,MultiRec,3062.1908000000003,28.800061793143563
,Regular,897.2558999999999,13.9914037453955
Show/Logic,Hand,82.8048,7.786278540555243
,EMGM,141.2082,6.54620505500875
,SYB,294.4178,12.10411136579449
,MultiRec,349.22110000000004,12.934834994008321
,Regular,117.207,8.011824636123784
Update/Tree,Hand,352.42160000000007,14.66167798643041
,EMGM,1945.7208999999998,25.59313106827262
,SYB,3439.0145,27.330203130724534
,MultiRec,1902.1185,26.078215724793928
,Regular,1168.8725,25.215304044479787
Update/Logic,Hand,1044.4646000000002,19.72825163847802
,EMGM,5319.5318,69.61401915770199
,SYB,5888.3675,80.18255298206856
,MultiRec,8767.747599999999,48.91265874597277
,Regular,4417.4755,99.85599206551858
-------------------------------------
