
Results:
Number of repetitions: 10
Compiler flags: -O2
Environment: darwin,i386,Version {versionBranch = [6,10], versionTags = []}
CPU time precision: 10.0 (ms)

Eq/Tree,Hand,511.465,1.6858739404357614e-7
,EMGM,575.5437999999999,2.611744678045111e-7
,SYB,8518.0907,NaN
,MultiRec,1316.5153,NaN
,Regular,1093.0901999999999,3.693564745147149e-7
Eq/Logic,Hand,1514.7604000000001,NaN
,EMGM,2934.3732,NaN
,SYB,18294.761899999998,1.7059844799040143e-6
,MultiRec,2491.1672000000003,NaN
,Regular,2615.7963000000004,NaN
Map/Tree,Hand,2373.9914,3.693564745147149e-7
,EMGM,2406.6469,NaN
,SYB,25981.482900000003,NaN
Read/Tree,Hand,917.4860000000001,NaN
,EMGM,7286.2171,3.015782985847835e-7
,SYB,18015.846100000002,NaN
,MultiRec,7608.453899999999,1.2434391794591234e-6
,Regular,7289.063099999999,7.979011788693195e-7
Read/Logic,Hand,963.6096,0.0
,EMGM,3425.1544999999996,5.642013342952362e-7
,SYB,8144.027400000001,NaN
Show/Tree,Hand,1916.5832000000003,NaN
,EMGM,3498.2057,2.132480599880018e-7
,SYB,8909.5013,4.264961199760036e-7
,MultiRec,6040.959699999999,6.743495761743046e-7
,Regular,2451.5357000000004,NaN
Show/Logic,Hand,247.75740000000002,NaN
,EMGM,400.08610000000004,NaN
,SYB,747.8106,NaN
,MultiRec,678.6560000000001,NaN
,Regular,299.308,1.066240299940009e-7
Update/Tree,Hand,1119.8531,NaN
,EMGM,1539.5314000000003,NaN
,SYB,9890.780899999998,1.4774258980588596e-6
,MultiRec,4249.712500000001,NaN
,Regular,1611.2685999999999,3.371747880871523e-7
Update/Logic,Hand,3347.9455000000003,NaN
,EMGM,17532.6251,NaN
,SYB,19629.4684,NaN
,MultiRec,22201.129699999998,1.3486991523486091e-6
,Regular,9985.498499999998,1.4145276045028044e-6
-------------------------------------
