
Results:
Number of repetitions: 10
Compiler flags: -O1 -funfolding-creation-threshold=450 -funfolding-use-threshold=60
Environment: darwin,i386,Version {versionBranch = [6,10], versionTags = []}
CPU time precision: 10.0 (ms)

Eq/Tree,Hand,533.9344,1.8467823725735746e-7
,EMGM,565.5034999999999,2.611744678045111e-7
,SYB,6006.357000000001,NaN
,MultiRec,1287.7117,NaN
,Regular,1104.1743,2.132480599880018e-7
Eq/Logic,Hand,1507.6341000000002,NaN
,EMGM,1584.9946,NaN
,SYB,12087.679500000002,NaN
,MultiRec,2487.3612999999996,6.743495761743046e-7
,Regular,2295.9042,2.132480599880018e-7
Map/Tree,Hand,2353.8550999999998,4.76837158203125e-7
,EMGM,2407.7578000000003,NaN
,SYB,26189.7012,1.0446978712180444e-6
Read/Tree,Hand,907.7041000000002,NaN
,EMGM,7244.748600000001,NaN
,SYB,23570.3497,1.0446978712180444e-6
,MultiRec,7344.885399999997,1.5670468068270668e-6
,Regular,7288.7621,4.264961199760036e-7
Read/Logic,Hand,946.5042,2.384185791015625e-7
,EMGM,3124.1535000000003,NaN
,SYB,10653.7493,6.03156597169567e-7
Show/Tree,Hand,1908.8397,2.132480599880018e-7
,EMGM,2075.0672999999997,5.642013342952362e-7
,SYB,8368.5494,NaN
,MultiRec,5048.455400000001,NaN
,Regular,1874.0851000000002,NaN
Show/Logic,Hand,244.26039999999998,1.5078914929239175e-7
,EMGM,279.81569999999994,2.5005551532987395e-7
,SYB,626.281,2.384185791015625e-7
,MultiRec,650.5147000000001,NaN
,Regular,255.1477,1.1920928955078125e-7
Update/Tree,Hand,1098.7964000000002,NaN
,EMGM,1483.3413999999998,4.523674478771752e-7
,SYB,9724.946100000001,NaN
,MultiRec,4403.484600000001,NaN
,Regular,1108.5162,1.5078914929239175e-7
Update/Logic,Hand,3352.6609000000003,NaN
,EMGM,3293.4314999999997,5.223489356090222e-7
,SYB,31177.9663,0.0
,MultiRec,22237.819199999998,1.206313194339134e-6
,Regular,3350.4801000000007,NaN
-------------------------------------
