
Results:
Number of repetitions: 20
Compiler flags: -O1 -fforce-recomp
Environment: mingw32,i386,Version {versionBranch = [6,10], versionTags = []}
CPU time precision: 1.0 (ms)

-------------------------------------
Test,Read
Multirec,52.34375
Regular,45.3125
-------------------------------------
