
Results:
Number of repetitions: 10
Compiler flags: -O2 -fforce-recomp -funfolding-use-threshold=256
Environment: mingw32,i386,Version {versionBranch = [6,10], versionTags = []}
CPU time precision: 1.0 (ms)

Eq/Logic,Regular,2812.5
Show/Logic,Regular,3831.25
-------------------------------------
