
Results:
Number of repetitions: 20
Compiler flags: -O1 -fforce-recomp -funfolding-creation-threshold=180 -funfolding-use-threshold=64
Environment: mingw32,i386,Version {versionBranch = [6,10], versionTags = []}
CPU time precision: 1.0 (ms)

-------------------------------------
Test,Show
Regular,382.03125
-------------------------------------
