
Results:
Number of repetitions: 10
Compiler flags: -O1
Environment: mingw32,i386,Version {versionBranch = [6,10], versionTags = []}
CPU time precision: 1.0 (ms)

Eq/Tree,Hand,250.0,7.36569563735987
,EMGM,246.875,9.882117688026186
,SYB,5354.6875,7.547592055306999
,MultiRec,567.1875,10.54607121422739
,Regular,217.1875,4.941058844013093
Eq/Logic,Hand,698.4375,10.54607121422739
,EMGM,1860.9375,4.941058844013093
,SYB,11657.8125,8.869472065586667
,MultiRec,1256.25,8.068715304598784
,Regular,859.375,7.36569563735987
Map/Tree,Hand,1160.9375,7.547592055306999
,EMGM,1103.125,8.068715304598784
,SYB,13689.0625,18.706546870904138
Read/Tree,Hand,482.8125,4.941058844013093
,EMGM,3764.0625,8.869472065586667
,SYB,9298.4375,11.529137302697217
,MultiRec,3906.25,0.0
,Regular,3771.875,13.176156917368248
Read/Logic,Hand,495.3125,7.547592055306999
,EMGM,1728.125,8.068715304598784
,SYB,4207.8125,7.547592055306999
Show/Tree,Hand,984.375,0.0
,EMGM,1898.4375,11.048543456039805
,SYB,4789.0625,8.235098073355154
,MultiRec,3254.6875,7.547592055306999
,Regular,1265.625,0.0
Show/Logic,Hand,125.0,0.0
,EMGM,231.25,6.588078458684124
,SYB,421.875,0.0
,MultiRec,359.375,0.0
,Regular,143.75,6.588078458684124
Update/Tree,Hand,575.0,6.588078458684124
,EMGM,782.8125,4.941058844013093
,SYB,5564.0625,8.869472065586667
,MultiRec,2604.6875,7.547592055306999
,Regular,726.5625,8.235098073355154
Update/Logic,Hand,1707.8125,7.547592055306999
,EMGM,9695.3125,15.18477055949297
,SYB,9917.1875,10.54607121422739
,MultiRec,12334.375,8.068715304598784
,Regular,3509.375,8.068715304598784
-------------------------------------
