
Results:
Number of repetitions: 10
Compiler flags: -O1 -funfolding-creation-threshold=450 -funfolding-use-threshold=60
Environment: mingw32,i386,Version {versionBranch = [6,8], versionTags = []}
CPU time precision: 1.0 (ms)

Eq/Tree,Hand,195.3125,8.235098073355154
,EMGM,232.8125,4.941058844013093
,SYB,2818.75,8.068715304598784
,MultiRec,551.5625,7.547592055306999
,Regular,198.4375,7.547592055306999
Eq/Logic,Hand,668.75,6.588078458684124
,EMGM,720.3125,4.941058844013093
,SYB,6104.6875,7.547592055306999
,MultiRec,1200.0,6.588078458684124
,Regular,684.375,6.588078458684124
Map/Tree,Hand,940.625,6.588078458684124
,EMGM,964.0625,7.547592055306999
,SYB,6823.4375,16.552342272990316
Read/Tree,Hand,459.375,8.068715304598784
,EMGM,3142.1875,4.941058844013093
,SYB,9823.4375,14.823176532039279
,MultiRec,3179.6875,8.235098073355154
,Regular,3140.625,0.0
Read/Logic,Hand,487.5,6.588078458684124
,EMGM,1465.625,9.882117688026186
,SYB,4468.75,7.36569563735987
Show/Tree,Hand,768.75,6.588078458684124
,EMGM,942.1875,7.547592055306999
,SYB,3498.4375,13.681172433920517
,MultiRec,2678.125,8.068715304598784
,Regular,864.0625,7.547592055306999
Show/Logic,Hand,106.25,6.588078458684124
,EMGM,120.3125,7.547592055306999
,SYB,317.1875,7.547592055306999
,MultiRec,314.0625,4.941058844013093
,Regular,110.9375,4.941058844013093
Update/Tree,Hand,465.625,6.588078458684124
,EMGM,600.0,8.068715304598784
,SYB,2350.0,8.068715304598784
,MultiRec,2210.9375,11.048543456039805
,Regular,596.875,6.588078458684124
Update/Logic,Hand,1453.125,0.0
,EMGM,1420.3125,4.941058844013093
,SYB,13342.1875,15.537951968933644
,MultiRec,10690.625,12.325166214790867
,Regular,2881.25,8.068715304598784
-------------------------------------
