
Results:
Number of repetitions: 10
Compiler flags: -O0
Environment: mingw32,i386,Version {versionBranch = [6,8], versionTags = []}
CPU time precision: 1.0 (ms)

Eq/Tree,Hand,498.4375,4.941058844013093
,EMGM,2168.75,12.325166214790867
,SYB,5398.4375,16.876928902103803
,MultiRec,1496.875,12.325166214790867
,Regular,1075.0,6.588078458684124
Eq/Logic,Hand,1010.9375,10.54607121422739
,EMGM,2264.0625,8.869472065586667
,SYB,13192.1875,14.823176532039279
,MultiRec,2703.125,10.416666666666666
,Regular,2121.875,6.588078458684124
Map/Tree,Hand,984.375,7.36569563735987
,EMGM,3681.25,18.3404342308948
,SYB,49701.5625,56.31265800323129
Read/Tree,Hand,537.5,8.068715304598784
,EMGM,3468.75,12.75775907699572
,SYB,10165.625,19.764235376052373
,MultiRec,3554.6875,15.18477055949297
,Regular,3292.1875,20.898336091394665
Read/Logic,Hand,540.625,8.068715304598784
,EMGM,1821.875,8.068715304598784
,SYB,4671.875,19.48779888944761
Show/Tree,Hand,2239.0625,14.823176532039279
,EMGM,4859.375,18.042195912175806
,SYB,12246.875,16.13743060919757
,MultiRec,6362.5,14.358384116760648
,Regular,3462.5,16.79637030895531
Show/Logic,Hand,293.75,6.588078458684124
,EMGM,401.5625,7.547592055306999
,SYB,1157.8125,11.529137302697217
,MultiRec,717.1875,4.941058844013093
,Regular,365.625,8.068715304598784
Update/Tree,Hand,1046.875,10.416666666666666
,EMGM,3232.8125,8.869472065586667
,SYB,18079.6875,24.923929404177915
,MultiRec,5534.375,14.358384116760648
,Regular,2623.4375,11.529137302697217
Update/Logic,Hand,1615.625,10.925092168439079
,EMGM,7432.8125,18.11721576138134
,SYB,64329.6875,36.421111952181434
,MultiRec,19720.3125,22.642776165921
,Regular,9157.8125,23.810686355546792
-------------------------------------
