
Results:
Number of repetitions: 10
Compiler flags: -O1 -funfolding-creation-threshold=1000 -funfolding-use-threshold=180
Environment: mingw32,i386,Version {versionBranch = [6,8], versionTags = []}
CPU time precision: 1.0 (ms)

Eq/Tree,Hand,193.75,8.068715304598784
,EMGM,217.1875,4.941058844013093
,SYB,2815.625,9.882117688026186
,MultiRec,553.125,8.068715304598784
,Regular,198.4375,7.547592055306999
Eq/Logic,Hand,667.1875,7.547592055306999
,EMGM,735.9375,4.941058844013093
,SYB,6103.125,10.925092168439079
,MultiRec,1220.3125,20.104436526686232
,Regular,685.9375,4.941058844013093
Map/Tree,Hand,935.9375,4.941058844013093
,EMGM,962.5,8.068715304598784
,SYB,6825.0,9.882117688026186
Read/Tree,Hand,456.25,6.588078458684124
,EMGM,3140.625,10.416666666666666
,SYB,9817.1875,7.547592055306999
,MultiRec,3168.75,19.207384286026848
,Regular,3128.125,6.588078458684124
Read/Logic,Hand,479.6875,7.547592055306999
,EMGM,1457.8125,10.54607121422739
,SYB,4471.875,6.588078458684124
Show/Tree,Hand,768.75,6.588078458684124
,EMGM,940.625,9.882117688026186
,SYB,3246.875,6.588078458684124
,MultiRec,2578.125,14.73139127471974
,Regular,884.375,8.068715304598784
Show/Logic,Hand,106.25,6.588078458684124
,EMGM,118.75,8.068715304598784
,SYB,301.5625,7.547592055306999
,MultiRec,314.0625,4.941058844013093
,Regular,109.375,0.0
Update/Tree,Hand,467.1875,4.941058844013093
,EMGM,607.8125,4.941058844013093
,SYB,2350.0,8.068715304598784
,MultiRec,2215.625,25.301995419773164
,Regular,579.6875,4.941058844013093
Update/Logic,Hand,1453.125,0.0
,EMGM,1420.3125,4.941058844013093
,SYB,13334.375,19.764235376052373
,MultiRec,10685.9375,11.529137302697217
,Regular,1889.0625,4.941058844013093
-------------------------------------
