
Results:
Number of repetitions: 10
Compiler flags: -O1 -funfolding-creation-threshold=450 -funfolding-use-threshold=60
Environment: mingw32,i386,Version {versionBranch = [6,12], versionTags = []}
CPU time precision: 1.0 (ms)

Eq/Tree,Hand,237.5,12.325166214790867
,EMGM,240.625,19.764235376052373
,SYB,3035.9375,38.30869905923603
,MultiRec,560.9375,24.923929404177915
,Regular,209.375,10.925092168439079
Eq/Logic,Hand,684.375,16.13743060919757
,EMGM,740.625,19.764235376052373
,SYB,5981.25,48.747328986656626
,MultiRec,1204.6875,18.706546870904138
,Regular,665.625,18.3404342308948
Map/Tree,Hand,995.3125,16.552342272990316
,EMGM,1020.3125,24.48470681988158
,SYB,11940.625,124.52165418557172
Read/Tree,Hand,448.4375,18.11721576138134
,EMGM,3148.4375,29.692068361956718
,SYB,14129.6875,1122.0314325322074
,MultiRec,3184.375,25.301995419773164
,Regular,3189.0625,34.899719932814484
Read/Logic,Hand,462.5,10.925092168439079
,EMGM,1421.875,30.36954111898594
,SYB,6256.25,504.3323591365343
Show/Tree,Hand,868.75,13.176156917368248
,EMGM,918.75,14.358384116760648
,SYB,4218.75,41.01045767714485
,MultiRec,2490.625,33.10468454598063
,Regular,876.5625,11.529137302697217
Show/Logic,Hand,107.8125,4.941058844013093
,EMGM,131.25,13.176156917368248
,SYB,345.3125,15.537951968933644
,MultiRec,309.375,17.738944131173334
,Regular,120.3125,12.863634411696323
Update/Tree,Hand,498.4375,11.529137302697217
,EMGM,684.375,16.13743060919757
,SYB,4853.125,30.547663122114958
,MultiRec,2025.0,25.727268823392645
,Regular,529.6875,15.537951968933644
Update/Logic,Hand,1525.0,15.095184110613998
,EMGM,1484.375,19.48779888944761
,SYB,14135.9375,429.93521899784184
,MultiRec,10060.9375,53.344115121122364
,Regular,1196.875,23.52414539715878
-------------------------------------
